ptp1b_seurat
…
The average log2 fold change (“avg_log2FC”) measures how much more a gene is expressed in one cluster compared to the others. Looking through the top 5 overexpressed genes in each cluster is a good starting point:

top5 <- so.markers %>%
  group_by(cluster) %>%
  slice_max(n = 5, order_by = avg_log2FC)
# group_by(cluster): Group the rows by cluster
# slice_max(n = 5): Take the top 5 rows
# order_by = avg_log2FC: Rank rows by highest average log2 fold change

top5

# A tibble: 75 × 7
# Groups:   cluster [15]
      p_val avg_log2FC pct.1 pct.2 p_val_adj cluster gene         
      <dbl>      <dbl> <dbl> <dbl>     <dbl> <fct>   <chr>        
 1 7.50e-11       6.10 0.013 0      1.98e- 6 0       Col17a1      
 2 3.70e-13       4.85 0.018 0.001  9.76e- 9 0       Tmem210      
 3 1.64e-14       4.22 0.02  0.001  4.33e-10 0       Olfr1454     
 4 3.18e-14       3.99 0.022 0.001  8.39e-10 0       9330198N18Rik
 5 1.82e-12       3.98 0.017 0.001  4.81e- 8 0       Lctl         
 6 3.71e- 7       5.63 0.012 0.001  9.78e- 3 1       Gm17797      
 7 6.78e- 6       5.55 0.01  0.001  1.79e- 1 1       1700111E14Rik
 8 1.05e-11       4.97 0.022 0.002  2.78e- 7 1       Gm7452       
 9 5.49e- 7       4.96 0.013 0.001  1.45e- 2 1       Gm5862       
10 1.93e-15       4.91 0.035 0.004  5.09e-11 1       Gm21680      
# ℹ 65 more rows
…
